\relax 
\@writefile{toc}{\contentsline {section}{\numberline {1}Changelog}{3}}
\@writefile{toc}{\contentsline {subsection}{\numberline {1.1}Novermber 20, 2017}{3}}
\@writefile{toc}{\contentsline {section}{\numberline {2}Matter and Motion}{4}}
\@writefile{toc}{\contentsline {section}{\numberline {3}A Critique of Anarcho-capitalism}{6}}
\@writefile{toc}{\contentsline {section}{\numberline {4}Overview Dialetical Equations}{10}}
\@writefile{toc}{\contentsline {section}{\numberline {5}Dialetical Equations, 1}{11}}
\@writefile{toc}{\contentsline {section}{\numberline {6}Dialetical Equations, 2}{19}}
\@writefile{toc}{\contentsline {section}{\numberline {7}On Libertarianism}{26}}
\@writefile{toc}{\contentsline {section}{\numberline {8}Hoxhaism}{28}}
\@writefile{toc}{\contentsline {section}{\numberline {9}The Stakhanov Revolution}{37}}
\@writefile{toc}{\contentsline {section}{\numberline {10}Response on Third Worldism}{44}}
\@writefile{toc}{\contentsline {subsection}{\numberline {10.1}On the World Crisis of Capitalism}{46}}
